<?xml version="1.0" encoding="utf-8"?>
<!-- Generated by IcoMoon.io -->
<!DOCTYPE svg PUBLIC "-//W3C//DTD SVG 1.1//EN" "http://www.w3.org/Graphics/SVG/1.1/DTD/svg11.dtd">
<svg version="1.1" xmlns="http://www.w3.org/2000/svg" xmlns:xlink="http://www.w3.org/1999/xlink" width="33" height="33" viewBox="0 0 33 33">
	<path d="M31.504 6.267c-1.095-0.313-2.237 0.321-2.55 1.417l-0.162 0.567h-19.237l-0.29-2.318c-0.129-1.032-1.006-1.807-2.047-1.807h-5.156c-1.139 0-2.063 0.923-2.063 2.063s0.923 2.063 2.063 2.063h3.336l1.837 14.693c0.129 1.032 1.006 1.807 2.047 1.807h17.531c0.921 0 1.73-0.61 1.983-1.496l4.125-14.437c0.313-1.095-0.321-2.237-1.417-2.55zM16.5 16.5v-2.063h4.125v2.063h-4.125zM20.625 18.563v2.063h-4.125v-2.063h4.125zM16.5 12.375v-2.063h4.125v2.063h-4.125zM9.813 10.313h4.625v2.063h-4.367l-0.258-2.063zM10.329 14.438h4.109v2.063h-3.851l-0.258-2.063zM10.844 18.563h3.593v2.063h-3.336l-0.258-2.063zM25.257 20.625h-2.569v-2.063h3.159l-0.589 2.063zM26.435 16.5h-3.748v-2.063h4.337l-0.589 2.063zM27.614 12.375h-4.927v-2.063h5.516l-0.589 2.063zM8.25 29.906c0-1.709 1.385-3.094 3.094-3.094s3.094 1.385 3.094 3.094c0 1.709-1.385 3.094-3.094 3.094-1.709 0-3.094-1.385-3.094-3.094zM20.625 29.906c0-1.709 1.385-3.094 3.094-3.094s3.094 1.385 3.094 3.094c0 1.709-1.385 3.094-3.094 3.094-1.709 0-3.094-1.385-3.094-3.094z" fill="#ffffff" />
</svg>
