<?xml version="1.0" encoding="utf-8"?>
<!-- Generator: Adobe Illustrator 16.0.0, SVG Export Plug-In . SVG Version: 6.00 Build 0)  -->
<!DOCTYPE svg PUBLIC "-//W3C//DTD SVG 1.1//EN" "http://www.w3.org/Graphics/SVG/1.1/DTD/svg11.dtd">
<svg version="1.1" id="Layer_1" xmlns="http://www.w3.org/2000/svg" xmlns:xlink="http://www.w3.org/1999/xlink" x="0px" y="0px"
	 width="138.5px" height="35px" viewBox="0 0 138.5 35" enable-background="new 0 0 138.5 35" xml:space="preserve">
<g>
	<g>
		<path fill="#FFFFFF" d="M73.695,16.804c-1.04,0-1.789,0.34-2.549,0.687v7.847c0.729,0.071,1.145,0.071,1.836,0.071
			c2.496,0,2.837-1.142,2.837-2.735v-3.75C75.819,17.749,75.429,16.804,73.695,16.804 M57.124,16.375
			c-1.731,0-2.126,0.949-2.126,2.125v0.66h4.25V18.5C59.249,17.324,58.854,16.375,57.124,16.375 M25.023,24.544
			c0,0.929,0.439,1.412,1.409,1.412c1.041,0,1.656-0.338,2.416-0.687v-1.86h-2.275C25.496,23.409,25.023,23.608,25.023,24.544
			 M89.815,16.804c-1.734,0-2.334,0.945-2.334,2.12v4.295c0,1.18,0.601,2.126,2.334,2.126c1.729,0,2.335-0.947,2.335-2.126v-4.295
			C92.15,17.749,91.544,16.804,89.815,16.804 M16.524,29.358h-5.097V17.037H8.88V12.79h2.548v-2.549
			c0-3.464,1.438-5.524,5.523-5.524h3.402v4.247h-2.125c-1.591,0-1.696,0.593-1.696,1.701l-0.007,2.125h3.853l-0.451,4.247h-3.402
			V29.358z M33.946,29.39h-4.249l-0.183-1.073c-1.94,1.073-3.672,1.247-4.813,1.247c-3.116,0-4.775-2.078-4.775-4.954
			c0-3.391,1.935-4.601,5.397-4.601h3.524v-0.733c0-1.732-0.199-2.24-2.864-2.24h-4.359l0.426-4.247h4.764
			c5.85,0,7.132,1.846,7.132,6.521V29.39z M48.393,17.348c-2.644-0.453-3.403-0.553-4.675-0.553c-2.285,0-2.976,0.504-2.976,2.441
			v3.666c0,1.938,0.69,2.443,2.976,2.443c1.272,0,2.031-0.1,4.675-0.554v4.141c-2.316,0.52-3.824,0.655-5.099,0.655
			c-5.473,0-7.648-2.874-7.648-7.027v-2.974c0-4.156,2.175-7.035,7.648-7.035c1.275,0,2.783,0.138,5.099,0.657V17.348z
			 M64.345,22.56h-9.347v0.342c0,1.938,0.691,2.443,2.975,2.443c2.055,0,3.308-0.1,5.946-0.554v4.141
			c-2.544,0.52-3.87,0.655-6.368,0.655c-5.473,0-7.649-2.874-7.649-7.027v-3.401c0-3.632,1.616-6.608,7.223-6.608
			c5.609,0,7.221,2.941,7.221,6.608V22.56z M80.916,22.638c0,4.014-1.148,6.941-8.106,6.941c-2.511,0-3.987-0.221-6.76-0.647V5.992
			l5.096-0.848v8.023c1.101-0.409,2.527-0.616,3.824-0.616c5.098,0,5.946,2.282,5.946,5.949V22.638z M97.251,22.727
			c0,3.462-1.432,6.819-7.419,6.819c-5.992,0-7.449-3.357-7.449-6.819v-3.343c0-3.463,1.458-6.822,7.449-6.822
			c5.988,0,7.419,3.358,7.419,6.822V22.727z M113.574,22.727c0,3.462-1.433,6.819-7.418,6.819c-5.992,0-7.451-3.357-7.451-6.819
			v-3.343c0-3.463,1.458-6.822,7.451-6.822c5.985,0,7.418,3.358,7.418,6.822V22.727z M130.328,29.358h-5.525l-4.671-7.787v7.787
			h-5.097V5.992l5.097-0.848v15.042l4.671-7.396h5.525l-5.101,8.07L130.328,29.358z M106.138,16.804
			c-1.731,0-2.332,0.945-2.332,2.12v4.295c0,1.18,0.601,2.126,2.332,2.126c1.729,0,2.34-0.947,2.34-2.126v-4.295
			C108.478,17.749,107.867,16.804,106.138,16.804"/>
	</g>
	<g>
		<path fill="#231F20" d="M73.695,16.804c-1.04,0-1.789,0.34-2.549,0.687v7.847c0.729,0.071,1.145,0.071,1.836,0.071
			c2.496,0,2.837-1.142,2.837-2.735v-3.75C75.819,17.749,75.429,16.804,73.695,16.804 M57.124,16.375
			c-1.731,0-2.126,0.949-2.126,2.125v0.66h4.25V18.5C59.249,17.324,58.854,16.375,57.124,16.375 M25.023,24.544
			c0,0.929,0.439,1.412,1.409,1.412c1.041,0,1.656-0.338,2.416-0.687v-1.86h-2.275C25.496,23.409,25.023,23.608,25.023,24.544
			 M89.815,16.804c-1.734,0-2.334,0.945-2.334,2.12v4.295c0,1.18,0.601,2.126,2.334,2.126c1.729,0,2.335-0.947,2.335-2.126v-4.295
			C92.15,17.749,91.544,16.804,89.815,16.804 M16.524,29.358h-5.097V17.037H8.88V12.79h2.548v-2.549
			c0-3.464,1.438-5.524,5.523-5.524h3.402v4.247h-2.125c-1.591,0-1.696,0.593-1.696,1.701l-0.007,2.125h3.853l-0.451,4.247h-3.402
			V29.358z M33.946,29.39h-4.249l-0.183-1.073c-1.94,1.073-3.672,1.247-4.813,1.247c-3.116,0-4.775-2.078-4.775-4.954
			c0-3.391,1.935-4.601,5.397-4.601h3.524v-0.733c0-1.732-0.199-2.24-2.864-2.24h-4.359l0.426-4.247h4.764
			c5.85,0,7.132,1.846,7.132,6.521V29.39z M48.393,17.348c-2.644-0.453-3.403-0.553-4.675-0.553c-2.285,0-2.976,0.504-2.976,2.441
			v3.666c0,1.938,0.69,2.443,2.976,2.443c1.272,0,2.031-0.1,4.675-0.554v4.141c-2.316,0.52-3.824,0.655-5.099,0.655
			c-5.473,0-7.648-2.874-7.648-7.027v-2.974c0-4.156,2.175-7.035,7.648-7.035c1.275,0,2.783,0.138,5.099,0.657V17.348z
			 M64.345,22.56h-9.347v0.342c0,1.938,0.691,2.443,2.975,2.443c2.055,0,3.308-0.1,5.946-0.554v4.141
			c-2.544,0.52-3.87,0.655-6.368,0.655c-5.473,0-7.649-2.874-7.649-7.027v-3.401c0-3.632,1.616-6.608,7.223-6.608
			c5.609,0,7.221,2.941,7.221,6.608V22.56z M80.916,22.638c0,4.014-1.148,6.941-8.106,6.941c-2.511,0-3.987-0.221-6.76-0.647V5.992
			l5.096-0.848v8.023c1.101-0.409,2.527-0.616,3.824-0.616c5.098,0,5.946,2.282,5.946,5.949V22.638z M97.251,22.727
			c0,3.462-1.432,6.819-7.419,6.819c-5.992,0-7.449-3.357-7.449-6.819v-3.343c0-3.463,1.458-6.822,7.449-6.822
			c5.988,0,7.419,3.358,7.419,6.822V22.727z M113.574,22.727c0,3.462-1.433,6.819-7.418,6.819c-5.992,0-7.451-3.357-7.451-6.819
			v-3.343c0-3.463,1.458-6.822,7.451-6.822c5.985,0,7.418,3.358,7.418,6.822V22.727z M130.328,29.358h-5.525l-4.671-7.787v7.787
			h-5.097V5.992l5.097-0.848v15.042l4.671-7.396h5.525l-5.101,8.07L130.328,29.358z M106.138,16.804
			c-1.731,0-2.332,0.945-2.332,2.12v4.295c0,1.18,0.601,2.126,2.332,2.126c1.729,0,2.34-0.947,2.34-2.126v-4.295
			C108.478,17.749,107.867,16.804,106.138,16.804"/>
	</g>
</g>
</svg>
