<?xml version="1.0" encoding="utf-8"?>
<!-- Generator: Adobe Illustrator 16.0.0, SVG Export Plug-In . SVG Version: 6.00 Build 0)  -->
<!DOCTYPE svg PUBLIC "-//W3C//DTD SVG 1.1//EN" "http://www.w3.org/Graphics/SVG/1.1/DTD/svg11.dtd">
<svg version="1.1" id="Layer_1" xmlns="http://www.w3.org/2000/svg" xmlns:xlink="http://www.w3.org/1999/xlink" x="0px" y="0px"
	 width="114.5px" height="43.28px" viewBox="0 0 114.5 43.28" enable-background="new 0 0 114.5 43.28" xml:space="preserve">
<g>
	<path fill-rule="evenodd" clip-rule="evenodd" fill="#010101" d="M108.495,27.818c-0.407,0.223-0.816,0.481-1.224,0.667
		c-1.225,0.557-2.484,0.705-3.598,0.705c-1.188,0-3.043-0.074-4.934-1.446c-2.633-1.854-3.782-5.044-3.782-7.826
		c0-5.749,4.673-8.568,8.494-8.568c1.335,0,2.707,0.333,3.819,1.039c1.854,1.224,2.336,2.819,2.596,3.672l-8.716,3.523l-2.856,0.223
		c0.928,4.71,4.117,7.455,7.641,7.455c1.892,0,3.265-0.667,4.526-1.298L108.495,27.818L108.495,27.818z M105.009,16.766
		c0.704-0.26,1.075-0.482,1.075-1.002c0-1.483-1.668-3.19-3.672-3.19c-1.484,0-4.266,1.15-4.266,5.156
		c0,0.631,0.074,1.298,0.111,1.966L105.009,16.766L105.009,16.766z"/>
	<path fill-rule="evenodd" clip-rule="evenodd" fill="#010101" d="M94.066,28.634h-6.564c0.853-1.111,1.002-1.225,1.002-1.965
		v-6.046c0-2.893,0.037-7.01,0.146-10.867c0.038-1.892,0.187-4.266,0.223-5.972H85.98l2.783-1.335h5.303
		c-1.148,0.668-1.521,0.891-1.668,2.189c-0.297,2.855-0.334,7.38-0.334,12.647v8.568c0,1.447,0.259,1.67,1.483,1.78
		c0.631,0.075,1.261,0.111,1.892,0.186L94.066,28.634L94.066,28.634z"/>
	<path fill-rule="evenodd" clip-rule="evenodd" fill="#010101" d="M81.9,13.167c0.854,0.705,2.634,2.188,2.634,5.007
		c0,2.745-1.558,4.043-3.114,5.267c-0.482,0.482-1.039,1.003-1.039,1.817c0,0.816,0.557,1.262,0.963,1.595l1.336,1.039
		c1.633,1.372,3.115,2.634,3.115,5.193c0,3.485-3.375,7.01-9.755,7.01c-5.378,0-7.974-2.56-7.974-5.305
		c0-1.335,0.668-3.227,2.855-4.524c2.3-1.41,5.416-1.595,7.084-1.706c-0.52-0.668-1.111-1.372-1.111-2.522
		c0-0.631,0.185-1.002,0.371-1.447c-0.409,0.037-0.816,0.074-1.188,0.074c-3.932,0-6.158-2.93-6.158-5.823
		c0-1.706,0.779-3.598,2.375-4.97c2.115-1.743,4.636-2.04,6.639-2.04h7.641l-2.373,1.335H81.9L81.9,13.167z M79.268,29.636
		c-0.297-0.037-0.482-0.037-0.854-0.037c-0.334,0-2.336,0.074-3.895,0.594c-0.815,0.297-3.189,1.187-3.189,3.82
		c0,2.633,2.559,4.524,6.528,4.524c3.562,0,5.452-1.706,5.452-4.005C83.311,32.64,82.088,31.64,79.268,29.636L79.268,29.636z
		 M80.344,22.589c0.852-0.854,0.927-2.041,0.927-2.708c0-2.671-1.595-6.825-4.675-6.825c-0.963,0-2.001,0.482-2.596,1.225
		c-0.631,0.779-0.816,1.78-0.816,2.744c0,2.485,1.447,6.604,4.637,6.604C78.747,23.628,79.75,23.182,80.344,22.589L80.344,22.589z"
		/>
	<path fill-rule="evenodd" clip-rule="evenodd" fill="#010101" d="M58.904,29.116c-5.897,0-9.05-4.599-9.05-8.753
		c0-4.859,3.969-9.013,9.606-9.013c5.454,0,8.866,4.265,8.866,8.753C68.326,24.48,64.95,29.116,58.904,29.116L58.904,29.116z
		 M63.541,26.112c0.891-1.188,1.112-2.671,1.112-4.117c0-3.264-1.558-9.495-6.157-9.495c-1.224,0-2.448,0.482-3.338,1.261
		c-1.446,1.298-1.706,2.931-1.706,4.525c0,3.672,1.818,9.718,6.305,9.718C61.203,28.004,62.688,27.3,63.541,26.112L63.541,26.112z"
		/>
	<path fill-rule="evenodd" clip-rule="evenodd" fill="#010101" d="M39.172,29.116c-5.898,0-9.051-4.599-9.051-8.753
		c0-4.859,3.969-9.013,9.607-9.013c5.452,0,8.864,4.265,8.864,8.753C48.593,24.48,45.218,29.116,39.172,29.116L39.172,29.116z
		 M43.808,26.112c0.891-1.188,1.113-2.671,1.113-4.117c0-3.264-1.558-9.495-6.156-9.495c-1.224,0-2.448,0.482-3.339,1.261
		c-1.446,1.298-1.706,2.931-1.706,4.525c0,3.672,1.818,9.718,6.306,9.718C41.472,28.004,42.955,27.3,43.808,26.112L43.808,26.112z"
		/>
	<path fill-rule="evenodd" clip-rule="evenodd" fill="#010101" d="M27.763,27.821l-4.972,1.148
		c-2.017,0.312-3.825,0.591-5.738,0.591c-9.598,0-13.249-7.06-13.249-12.588c0-6.746,5.182-13.005,14.048-13.005
		c1.877,0,3.687,0.279,5.32,0.73c2.608,0.731,3.825,1.634,4.59,2.157l-2.886,2.747l-1.217,0.278l0.869-1.391
		c-1.183-1.147-3.339-3.268-7.441-3.268c-5.495,0-9.633,4.172-9.633,10.258c0,6.537,4.729,12.691,12.31,12.691
		c2.226,0,3.373-0.451,4.417-0.868v-5.599l-5.251,0.277l2.782-1.495h7.372l-0.904,0.87c-0.244,0.208-0.279,0.277-0.349,0.557
		c-0.034,0.312-0.069,1.321-0.069,1.669V27.821L27.763,27.821z"/>
</g>
</svg>
