<?xml version="1.0" encoding="utf-8"?>
<!-- Generator: Adobe Illustrator 16.0.0, SVG Export Plug-In . SVG Version: 6.00 Build 0)  -->
<!DOCTYPE svg PUBLIC "-//W3C//DTD SVG 1.1//EN" "http://www.w3.org/Graphics/SVG/1.1/DTD/svg11.dtd">
<svg version="1.1" id="Layer_1" xmlns="http://www.w3.org/2000/svg" xmlns:xlink="http://www.w3.org/1999/xlink" x="0px" y="0px"
	 width="54.012px" height="71.993px" viewBox="0 0 54.012 71.993" enable-background="new 0 0 54.012 71.993" xml:space="preserve">
<g>
	<path d="M46.887,31.431V19.616c0-10.83-8.781-19.611-19.611-19.611c-0.135,0-0.232-0.008-0.365-0.004
		c-0.109-0.002-0.248,0.006-0.359,0.006c-10.832,0-19.609,8.781-19.609,19.611v11.812H0v40.562h54.012V31.431H46.887z
		 M16.752,19.618c0-5.402,4.396-9.797,9.799-9.797c0.154,0,0.479-0.008,0.479-0.008s0.164,0.006,0.246,0.006
		c5.402,0,9.799,4.395,9.799,9.797v11.814H16.752V19.618z"/>
</g>
</svg>
