<?xml version="1.0" encoding="utf-8"?>
<!-- Generator: Adobe Illustrator 16.0.0, SVG Export Plug-In . SVG Version: 6.00 Build 0)  -->
<!DOCTYPE svg PUBLIC "-//W3C//DTD SVG 1.1//EN" "http://www.w3.org/Graphics/SVG/1.1/DTD/svg11.dtd">
<svg version="1.1" id="Layer_1" xmlns="http://www.w3.org/2000/svg" xmlns:xlink="http://www.w3.org/1999/xlink" x="0px" y="0px"
	 width="74.993px" height="65.648px" viewBox="0 0 74.993 65.648" enable-background="new 0 0 74.993 65.648" xml:space="preserve">
<g>
	<path d="M64.475,48.369l0.609-1.371c-2.001-0.883-4.737-2.623-8.157-4.362c-3.426-1.739-7.576-3.478-12.545-4.367l-0.264,1.477
		l1.096,1.024c2.707-2.918,4.567-7.143,6.496-12.026l0.019-0.048l-0.019,0.048c0.458-1.166,0.721-2.288,0.862-3.393
		c0.142-1.106,0.167-2.192,0.167-3.325c0-0.779-0.012-1.583-0.012-2.44c-0.002-1.416,0.171-3.506,0.172-5.482
		c-0.004-1.31-0.066-2.569-0.379-3.703l0,0c-0.566-2.016-1.364-3.719-2.372-5.128c-1.508-2.118-3.496-3.543-5.69-4.388
		c-2.197-0.849-4.591-1.151-7.054-1.152c-3.281,0.001-6.463,0.539-9.177,2.202c-1.353,0.829-2.57,1.941-3.576,3.354
		c-1.008,1.412-1.805,3.118-2.37,5.137v0c-0.309,1.125-0.37,2.372-0.375,3.67c0.001,1.978,0.176,4.074,0.174,5.491
		c0,0.845-0.012,1.637-0.012,2.406c0,1.144,0.025,2.239,0.167,3.354c0.142,1.114,0.406,2.245,0.868,3.419v0
		c0.966,2.453,1.916,4.731,2.953,6.762c1.039,2.03,2.165,3.818,3.521,5.271l1.096-1.024l-0.271-1.475
		c-4.929,0.906-9.045,2.643-12.446,4.375c-3.394,1.732-6.109,3.461-8.098,4.341l-0.085,0.038l0.085-0.038
		c-4.652,2.073-7.142,4.318-8.458,6.173c-1.32,1.851-1.419,3.283-1.417,3.534v0.008v8.922l75.007-0.009V56.73v-0.007
		c0.002-0.252-0.096-1.688-1.42-3.543c-1.32-1.859-3.818-4.108-8.488-6.182L64.475,48.369l-0.609,1.371
		c4.306,1.915,6.317,3.851,7.261,5.179c0.473,0.667,0.685,1.187,0.784,1.511c0.049,0.162,0.07,0.274,0.078,0.331l0.005,0.042
		l0.736-0.056l-0.737,0.007l0.001,0.049l0.736-0.056l-0.737,0.007v-0.014v5.906L2.986,62.653v-5.915h-1.5l1.5,0.015l-0.739-0.007
		l0.737,0.056l0.001-0.048l-0.739-0.007l0.737,0.056c0,0,0.014-0.203,0.151-0.572C3.342,55.676,3.82,54.748,5,53.601
		c1.179-1.144,3.068-2.502,6.083-3.846l0,0c2.333-1.047,4.979-2.752,8.238-4.408c3.251-1.656,7.077-3.262,11.626-4.098l2.698-0.496
		l-1.873-2.004c-1.078-1.151-2.081-2.707-3.041-4.588c-0.961-1.88-1.882-4.079-2.833-6.496v0c-0.365-0.932-0.567-1.791-0.684-2.702
		c-0.117-0.91-0.144-1.875-0.144-2.974c0-0.737,0.012-1.534,0.012-2.406c-0.002-1.623-0.176-3.681-0.174-5.491
		c-0.004-1.171,0.083-2.238,0.263-2.86l0.003-0.01l-0.003,0.01c0.487-1.739,1.145-3.112,1.923-4.204
		c1.171-1.634,2.607-2.668,4.336-3.345c1.727-0.672,3.756-0.954,5.975-0.953c2.961-0.001,5.564,0.499,7.602,1.752
		c1.023,0.628,1.922,1.444,2.702,2.533c0.778,1.089,1.436,2.459,1.924,4.195l0,0c0.183,0.629,0.271,1.708,0.267,2.89
		c0.002,1.809-0.17,3.861-0.172,5.482c0,0.886,0.012,1.693,0.012,2.44c0,1.087-0.027,2.042-0.143,2.942
		c-0.117,0.902-0.317,1.754-0.679,2.679l-0.02,0.05l0.02-0.05c-1.876,4.808-3.715,8.763-5.895,11.075l-1.882,2.015l2.714,0.486
		c4.585,0.821,8.44,2.428,11.716,4.089c3.283,1.662,5.948,3.378,8.295,4.428L64.475,48.369z"/>
</g>
</svg>
