<?xml version="1.0" encoding="utf-8"?>
<!-- Generator: Adobe Illustrator 16.0.0, SVG Export Plug-In . SVG Version: 6.00 Build 0)  -->
<!DOCTYPE svg PUBLIC "-//W3C//DTD SVG 1.1//EN" "http://www.w3.org/Graphics/SVG/1.1/DTD/svg11.dtd">
<svg version="1.1" id="Layer_1" xmlns="http://www.w3.org/2000/svg" xmlns:xlink="http://www.w3.org/1999/xlink" x="0px" y="0px"
	 width="72px" height="72px" viewBox="0 0 72 72" enable-background="new 0 0 72 72" xml:space="preserve">
<g>
	<path d="M41.856,59.935c-1.66,0-3.217-0.644-4.388-1.813L10.706,31.358l0.689,7.748c0.082,0.94,0.697,2.254,1.364,2.921
		l27.885,27.885c0.667,0.667,1.758,0.667,2.425,0l20.292-20.293c0.667-0.667,0.667-1.759,0-2.425l-3.095-3.096L46.24,58.124
		C45.07,59.292,43.513,59.935,41.856,59.935z"/>
	<path d="M35.477,4.342c-0.667-0.667-1.98-1.283-2.921-1.368L17.474,1.599c-0.073-0.006-0.149-0.01-0.227-0.01
		c-0.915,0-2.08,0.453-2.694,1.069L11.111,6.1c-0.666,0.667-1.145,1.982-1.06,2.919l1.343,15.121
		c0.082,0.939,0.697,2.252,1.364,2.921l27.885,27.884c0.333,0.333,0.772,0.5,1.212,0.5c0.439,0,0.878-0.167,1.213-0.5l20.292-20.293
		c0.667-0.667,0.667-1.76,0-2.426L35.477,4.342z M16.452,8.1c0.726-0.725,1.677-1.088,2.628-1.088c0.953,0,1.906,0.364,2.633,1.09
		c1.453,1.454,1.451,3.809,0,5.259c-0.727,0.728-1.678,1.091-2.628,1.091c-0.953,0-1.905-0.364-2.631-1.091
		C14.999,11.908,14.998,9.554,16.452,8.1z"/>
</g>
</svg>
