<?xml version="1.0" encoding="utf-8"?>
<!-- Generator: Adobe Illustrator 16.0.0, SVG Export Plug-In . SVG Version: 6.00 Build 0)  -->
<!DOCTYPE svg PUBLIC "-//W3C//DTD SVG 1.1//EN" "http://www.w3.org/Graphics/SVG/1.1/DTD/svg11.dtd">
<svg version="1.1" id="Layer_1" xmlns="http://www.w3.org/2000/svg" xmlns:xlink="http://www.w3.org/1999/xlink" x="0px" y="0px"
	 width="72px" height="72px" viewBox="0 0 72 72" enable-background="new 0 0 72 72" xml:space="preserve">
<g>
	<path d="M68.261,61.178l-20.03-20.031c2.905-4.117,4.616-9.136,4.616-14.558c0-13.968-11.322-25.291-25.29-25.291
		c-13.967,0-25.292,11.322-25.292,25.291c0,13.966,11.324,25.291,25.292,25.291c5.448,0,10.49-1.728,14.618-4.658l20.021,20.022
		c1.836,1.836,4.704,1.975,6.372,0.306C70.236,65.882,70.098,63.014,68.261,61.178z M10.7,26.589
		c0-9.294,7.562-16.856,16.857-16.856c9.294,0,16.856,7.562,16.856,16.856c0,9.295-7.562,16.856-16.856,16.856
		C18.262,43.446,10.7,35.885,10.7,26.589z"/>
</g>
</svg>
