{
    "type" : "Feature",
    "properties" : {},
    "geometry" : {
        "type" : "Point",
        "coordinates" : [ 
            123.8897752761841, 
            10.31576371999243
        ]
    },
    "ip_address" : "10.10.1.1",
    "verb" : "product-chat",
    "date" : "",
    "date_simple" : "",
    "from_info" : {
        "user_id" : 0,
        "read" : false
    },
    "from_details" : {
        "description" : "product-chat in profile"
    },
    "to_info" : {
        "user_id" : 1,
        "read" : false
    },
    "extra_information" : {
        "product_info": {
            "product_id": 99,
            "store_id":2,
            "store_user_id":1,
            "variant_id":1
        },
        "chat_text" : "test Chat text2"
    }
}

//new JSON structure for chats
{
    "type" : "immediate",
    "properties" : [],
    "geometry" : {
        "type" : "Point",
        "coordinates" : [ 
            10.3111, 
            123.8917
        ]
    },
    "ip_address" : "112.202.78.123",
    "verb" : "product-chat",
    "date" : 1423118449,
    "date_simple" : "2015-02-04 22:40:49",
    "from_info" : {
        "user_id" : 0,
        "token" : "ZCBPpMlRwsFt3XWsZKqnVhX9qc5qp3TsM1zyCB5qlcCbN",
        "store_id" : 0,
        "read" : false
    },
    "to_info" : {
        "user_id" : 1,
        "read" : false
    },
    "extra_information" : {
        "product_info" : {
            "product_id" : 3,
            "store_id" : 2,
            "store_user_id" : 2,
            "collection_id" : 3,
            "variant_id" : 0
        },
        "chat_text" : "another chat variant 0 prod 2 latest"
    },
    "server_generated_read_tags" : {
        "read0":false,
        "read1":false
    }
}

//generic chat index
{

    "date":12309248,
    "date_simple":"2015-02-04 22:40:49",
    "users":[
        {
            "user_id":3
        },
        {
            "user_id":2
        }
    ],
    "chat":{
        "read3":false,
        "read2":false,
        "date_modified":12345,
        "date_modified_simple":12345
    },
    "product-chat":{
        "read3":false,
        "read2":false,
        "date_modified":12345,
        "date_modified_simple":12345
    },
    "order-chat":{
        "read3":false,
        "read2":false,
        "date_modified":12345,
        "date_modified_simple":12345
    }
}

//product chat index
{
    "users":[
        {
            "user_id":1
        },
        {
            "user_id":2
        }
    ],
    "store_id":1,
    "product_id":2,
    "store_user_id":3,
    "collection_id":0,
    "server_generated_read_tags" : {
        "read1":false,
        "read2":false
    }
}

//order chat index
{
    "users":[
        {
            "user_id":1
        },
        {
            "user_id":2
        }
    ],
    "shopstyx_order_id":"!2312321312",
    "shopstyx_order_number":12345,
    "server_generated_read_tags" : {
        "read1":false,
        "read2":false
    }
}