<?xml version="1.0" encoding="utf-8"?>
<!-- Generator: Adobe Illustrator 16.0.0, SVG Export Plug-In . SVG Version: 6.00 Build 0)  -->
<!DOCTYPE svg PUBLIC "-//W3C//DTD SVG 1.1//EN" "http://www.w3.org/Graphics/SVG/1.1/DTD/svg11.dtd">
<svg version="1.1" id="Layer_1" xmlns="http://www.w3.org/2000/svg" xmlns:xlink="http://www.w3.org/1999/xlink" x="0px" y="0px"
	 width="72px" height="72px" viewBox="0 0 72 72" enable-background="new 0 0 72 72" xml:space="preserve">
<g>
	<path d="M59.041,0h-46.08C5.832,0,0,5.833,0,12.961v46.08C0,66.168,5.832,72,12.961,72h46.08C66.168,72,72,66.168,72,59.041v-46.08
		C72,5.833,66.168,0,59.041,0z M24.796,56.107v0.002l-0.002,0.002h-0.001l-13.187,4.281l4.284-13.184l-0.001-0.002h0.001
		l0.001-0.002h0.002l26.713-26.714l8.902,8.901L24.796,56.107z M54.531,26.372l-8.903-8.903l5.863-5.86l8.901,8.903L54.531,26.372z"
		/>
	<rect x="16.708" y="35.826" transform="matrix(-0.7071 0.7071 -0.7071 -0.7071 81.2449 40.0727)" width="31.23" height="2.075"/>
</g>
</svg>
