<?xml version="1.0" encoding="utf-8"?>
<!-- Generator: Adobe Illustrator 16.0.0, SVG Export Plug-In . SVG Version: 6.00 Build 0)  -->
<!DOCTYPE svg PUBLIC "-//W3C//DTD SVG 1.1//EN" "http://www.w3.org/Graphics/SVG/1.1/DTD/svg11.dtd">
<svg version="1.1" id="Layer_1" xmlns="http://www.w3.org/2000/svg" xmlns:xlink="http://www.w3.org/1999/xlink" x="0px" y="0px"
	 width="71.895px" height="65.203px" viewBox="0 0 71.895 65.203" enable-background="new 0 0 71.895 65.203" xml:space="preserve">
<g>
	<polygon points="35.982,52.147 71.895,16.236 0,16.236 	"/>
</g>
</svg>
